6 R-package | Portfolio DataScience of Khadija Zbair
…
6.4 Functionality

To test the functionality of the functions, I will test them out on a the “Airway Study”.

The dataset includes hourly average readings from 5 chemical sensors in an air quality monitoring device placed in a polluted area in Italy. It covers one year from March 2004 to February 2005. The provided data includes concentrations of various pollutants like CO, hydrocarbons, benzene, NOx, and NO2. Some data quality issues, such as missing values tagged with -200, are noted. Because the identify_missing_values() only detects missing values as “NA”, I am showing the functionality of the function with the built-in “airquality” dataset.

library(HanaahRTidy)
library(tidyverse)

# Importing Airquality data with function import_data()
airway_data <- import_data("/Users/kzzba/Downloads/bookdown_khadija/AirQualityUCI.xlsx")
airway_data

## # A tibble: 9,357 × 15
##    Date                Time                `CO(GT)` `PT08.S1(CO)` `NMHC(GT)`
##    <dttm>              <dttm>                 <dbl>         <dbl>      <dbl>
##  1 2004-03-10 00:00:00 1899-12-31 18:00:00      2.6         1360         150
##  2 2004-03-10 00:00:00 1899-12-31 19:00:00      2           1292.        112
##  3 2004-03-10 00:00:00 1899-12-31 20:00:00      2.2         1402          88
##  4 2004-03-10 00:00:00 1899-12-31 21:00:00      2.2         1376.         80
##  5 2004-03-10 00:00:00 1899-12-31 22:00:00      1.6         1272.         51
##  6 2004-03-10 00:00:00 1899-12-31 23:00:00      1.2         1197          38
##  7 2004-03-11 00:00:00 1899-12-31 00:00:00      1.2         1185          31
##  8 2004-03-11 00:00:00 1899-12-31 01:00:00      1           1136.         31
##  9 2004-03-11 00:00:00 1899-12-31 02:00:00      0.9         1094          24
## 10 2004-03-11 00:00:00 1899-12-31 03:00:00      0.6         1010.         19
## # ℹ 9,347 more rows
## # ℹ 10 more variables: `C6H6(GT)` <dbl>, `PT08.S2(NMHC)` <dbl>,
## #   `NOx(GT)` <dbl>, `PT08.S3(NOx)` <dbl>, `NO2(GT)` <dbl>,
## #   `PT08.S4(NO2)` <dbl>, `PT08.S5(O3)` <dbl>, T <dbl>, RH <dbl>, AH <dbl>
…
